#,287529757, 292223170, 292760731, 292987597, 298903147, 300235330, 301521403, 314498713, 329504506, 353938652, 363724891, 368868193, 378928008, 386022579, 387771637, 389089619, 389724080, 398436747, 405280065, 410606661, 426826309, 433849825, 436762566, 466847531, 509253726
track way,+,+,+,,+,+,,,,,,+,+,+,+,+,+,,,,+,+,+,,+,
period track,,,+,,,,,,,,,+,,,,,+,,,,,,+,,,
baby nam,,,,,,,,,,+,+,,,,,,,,,,,,,,,
cal track,+,+,,,+,+,,,,,,,+,,+,,,,,,,+,,,,
cyc track,,,+,,,,,,,,,+,,,,,+,,,,,,+,,,
dist tim,,+,,,+,+,,,,,,,,,+,,,,,,+,,,,,
everyth track,+,+,+,,+,+,,,,,,+,+,,+,,+,,,,+,+,+,,,
lot nam,,,,,,,,,,+,+,,,,,,,,,,,,,,,
cho food,+,,,,,,,,,,,,+,,,,,+,,,,+,,,,
databas food,+,,,,,,,,,,,,+,,,,,+,,,,+,,,,
cal food,+,,,,,,,,,,,,+,,,,,+,,,,+,,,,
cal count,+,,,,,,+,,,,,,+,,+,,,,,,,+,,,,
progress track,+,+,,,+,+,+,,,,,,+,+,+,,,,+,,+,+,,,+,
track workout,,+,,,+,+,+,,,,,,+,,+,,,,,,,,,,+,
exerc food,+,,,,,,,,,,,,+,,,,,,,,,+,,,,
mom tim,,,,,,,,,,,,,,+,,+,,,,,,,,+,,
food track,+,,,,,,,,,,,,+,,,,,,,,,+,,,,
day period,,,+,,,,,,,,,+,,,,,+,,,,,,+,,,
run tim,,,,,+,+,,,,,,,,,+,,,,,,,,,,,
dist pac,,+,,,+,+,,,,,,,,,+,,,,,,,,,,,
tim track,+,+,+,,+,+,,,,,,+,,,+,,+,,,,+,,+,,,
mil tim,,+,,,+,+,,,,,,,,,+,,,,,,,,,,,
eat food,+,,,,,,,,,,,,+,,,,,+,,,,+,,,,
everyth nee,+,+,+,,+,+,,,,,,+,+,+,+,,+,,+,,,+,+,,,
night sleep,,,,+,,,,+,,,,,,,,,,,,+,,,,,,
pac tim,,+,,,+,+,,,,,,,,,+,,,,,,,,,,,
day track,+,,+,,,,,,,,,+,+,+,,,+,,,,,,+,,,
asleep fal,,,,+,,,,+,,,,,,,,,,,,+,,,,,,
mil run,,,,,,+,,,,,,,,,+,,,,,,,,,,,
food item,+,,,,,,,,,,,,+,,,,,+,,,,+,,,,
mil pac,,,,,+,+,,,,,,,,,+,,,,,,,,,,,
heart rat,,+,,,+,+,+,,,,,,,,+,,,,,,+,,,,,
cyc day,,,+,,,,,,,,,+,,,,,+,,,,,,+,,,
mean nam,,,,,,,,,,+,+,,,,,,,,,,,,,,,
cal day,+,,,,,,,,,,,,+,,,,,,,,,+,,,,
rid track,,+,,,,,,,,,,,,,,,,,,,+,,,,,
tim workout,,+,,,+,+,+,,,,,,+,,+,,,,,,,,,,,
eat track,+,,,,,,,,,,,,+,,,,,,,,,+,,,,
track weight,+,,,,,,,,,,,,+,,,+,,,,,,+,+,,,
bar cod,+,,,,,,,,,,,,+,,,,,+,,,,+,,,,
cal exerc,+,,,,,,+,,,,,,+,,,,,,,,,+,,,,
day tim,+,,+,+,,,+,+,+,,,+,+,+,+,,,,,,,,+,,,
tim work,,+,,+,,+,+,+,,,,,,,+,,,,,+,+,,,,,
exerc track,+,,,,,,,,,,,,+,,,,,,,,,,,,+,
run track,,,,,+,+,,,,,,,,,+,,,,,,,,,,,
food list,+,,,,,,,,,,,,+,,,,,,,,,+,,,,
cal weight,+,,,,,,,,,,,,+,,,,,,,,,+,,,,
loss weight,+,,,,,,,,,,,,+,,,,,,,,,+,,,,
food way,+,,,,,,,,,,,,+,,,,,+,,,,+,,,,
list nam,,,,,,,,,,+,+,,,,,,,,,,,,,,,
rain sound,,,,+,,,,+,,,,,,,,,,,,+,,,,,,
food intak,+,,,,,,,,,,,,+,,,,,,,,,+,,,,
fal night,,,,+,,,,+,,,,,,,,,,,,+,,,,,,
pound week,+,,,,,,,,,,,,,,,,,,,,,,,,,
grocery stor,,,,,,,,,,,,,,,,,,+,,,,,,,,
dist track,,+,,,+,+,,,,,,,,,+,,,,,,,,,,,
bik rid,,+,,,+,+,,,,,,,,,+,,,,,,+,,,,,
pac run,,,,,,+,,,,,,,,,+,,,,,,,,,,,
dist spee,,+,,,+,+,,,,,,,,,+,,,,,,+,,,,,
mil track,,+,,,+,+,,,,,,,,,+,,,,,,+,,,,,
food scan,+,,,,,,,,,,,,+,,,,,,,,,,,,,
food lot,+,,,,,,,,,,,,+,,,,,+,,,,+,,,,
help track,+,,+,,,,,,,,,+,+,,,,+,,,,,,+,,,
baby pregn,,,,,,,,,,,,,,+,,+,,,,,,,,+,,
baby cent,,,,,,,,,,,,,,+,,,,,,,,,,+,,
dist run,,,,,,+,,,,,,,,,+,,,,,,,,,,,
food tim,+,,,,,,,,,,,,+,,,,,+,,,,+,,,,
way workout,,+,,,+,,+,,,,,,,,+,,,,,,,,,,+,
baby develop,,,,,,,,,,,,,,+,,+,,,,,,,,+,,
food opt,+,,,,,,,,,,,,+,,,,,+,,,,+,,,,
nam ton,,,,,,,,,,+,+,,,,,,,,,,,,,,,
lov track,+,+,+,,,,,,,,,+,,,+,,+,,,,,,+,,,
dat period,,,+,,,,,,,,,+,,,,,+,,,,,,+,,,
cal way,+,,,,,,,,,,,,+,,+,,,,,,,+,,,,
mil minut,,,,,,+,,,,,,,,,+,,,,,,,,,,,
rid tim,,+,,,,,,,,,,,,,,,,,,,+,,,,,
cal tim,+,+,,,+,+,,,,,,,+,,+,,,,,,,+,,,,
crash tim,,+,,,,+,,,,,+,,+,,+,,,,,,,,+,,,
thing track,+,,+,,,,,,,,,+,,,+,,+,,,,,,+,,,
day food,+,,,,,,,,,,,,+,,,,,,,,,+,,,,
day week,+,,+,,,,+,,,,,,,+,,+,,,,,,,,,,
intak track,+,,,,,,,,,,,,+,,,,,,,,,+,,,,
minut tim,,,,+,,+,+,+,,,,,,,+,,,,,+,,,,,,
night tim,,,,+,,,,+,,,,,,,,,,,,+,,,,,,
symptom track,,,,,,,,,,,,+,,,,,+,,,,,,+,,,
cal eat,+,,,,,,,,,,,,+,,,,,,,,,+,,,,
sound tim,,,,+,,,,+,,,,,,,,,,,,+,,,,,,
food search,+,,,,,,,,,,,,+,,,,,,,,,+,,,,
baby lov,,,,,,,,,,+,,,,+,,+,,,,+,,,,+,,
rout tim,,+,,,+,+,,,,,,,,,+,,,,,,,,,,,
ov track,,,+,,,,,,,,,+,,,,,+,,,,,,+,,,
ov period,,,+,,,,,,,,,+,,,,,,,,,,,+,,,
heart monit,,+,,,,+,,,,,,,,,+,,,,,,+,,,,,
mood symptom,,,,,,,,,,,,+,,,,,+,,,,,,+,,,
gps run,,,,,,+,,,,,,,,,+,,,,,,,,,,,
day ov,,,+,,,,,,,,,+,,,,,,,,,,,+,,,
nam origin,,,,,,,,,,+,+,,,,,,,,,,,,,,,
rain thund,,,,+,,,,+,,,,,,,,,,,,+,,,,,,
food weight,+,,,,,,,,,,,,+,,,,,,,,,+,,,,
night sound,,,,+,,,,+,,,,,,,,,,,,+,,,,,,
food help,+,,,,,,,,,,,,,,,,,+,,,,+,,,,
food thing,+,,,,,,,,,,,,+,,,,,+,,,,+,,,,
inform lot,,,,,,,,,,,,,,+,,+,,+,,,,,,+,,
eat everyth,+,,,,,,,,,,,,+,,,,,,,,,+,,,,
spee tim,,+,,,+,+,,,,,,,,,+,,,,,,+,,,,,
nois sound,,,,+,,,,+,,,,,,,,,,,,+,,,,,,
baby inform,,,,,,,,,,,,,,+,,+,,,,,,,,+,,
baby sleep,,,,+,,,,+,,,,,,,,,,,,+,,,,,,
cyc way,,,+,,,,,,,,,+,,,,,+,,,,,,+,,,
dist rout,,+,,,+,+,,,,,,,,,+,,,,,,,,,,,
lov nam,,,,,,,,,,+,+,,,,,,,,,,,,,,,
dist mil,,+,,,+,+,,,,,,,,,+,,,,,,,,,,,
watch weight,+,,,,,,,,,,,,,,,,,+,,,,+,,,,
goal weight,+,,,,,,,,,,,,+,,,,,,,,,+,,,,
pregn track,,,+,,,,,,,,,,,+,,+,,,,,,,,,,
cal intak,+,,,,,,,,,,,,+,,,,,,,,,+,,,,
barcod scan,+,,,,,,,,,,,,+,,,,,,,,,+,,,,
sleep sound,,,,+,,,,+,,,,,,,,,,,,+,,,,,,
goal loss,+,,,,,,,,,,,,,,,,,,,,,+,,,,
nam vary,,,,,,,,,,+,+,,,,,,,,,,,,,,,
tim week,,,,,,+,+,,,,,,,+,+,,,,,,,,,,,
period tim,,,+,,,,,,,,,+,,,,,+,,,,,,+,,,
gps tim,,+,,,,+,,,,,,,,,+,,,,,,,,,,,
nois sleep,,,,+,,,,+,,,,,,,,,,,,+,,,,,,
mus tim,,,,,,+,+,+,,,,,,,+,,,,,,,,,,,
baby week,,,,,,,,,,,,,,+,,+,,,,,,,,,,
rid way,,+,,,,,,,,,,,,,,,,,,,+,,,,,
dist pac tim,,,,,+,+,,,,,,,,,+,,,,,,,,,,,
period way,,,+,,,,,,,,,,,,,,+,,,,,,+,,,
mus play,,,,,,+,+,,,,,,,,+,,,,,,,,,,,
phon run,,,,,,+,,,,,,,,,+,,,,,,,,,,,
gps track,,+,,,+,+,,,,,,,,,+,,,,,,,,,,,
cho help,+,,,,,,,,,,,,,,,,,+,,,,,,,,
bir club,,,,,,,,,,,,,,+,,,,,,,,,,+,,
mix sound,,,,+,,,,+,,,,,,,,,,,,,,,,,,
mus workout,,,,,,,+,,,,,,,,+,,,,,,,,,,,
dat track,+,,+,,,,,,,,,+,,,,,,,,,+,,+,,,
monit rat,,+,,,,+,,,,,,,,,+,,,,,,,,,,,
nam way,,,,,,,,,,+,+,,,,,,,,,,,,,,,
exerc weight,+,,,,,,+,,,,,,+,,,,,,,,,,,,,
dist gps,,,,,+,+,,,,,,,,,+,,,,,,,,,,,
sound volum,,,,+,,,,+,,,,,,,,,,,,,,,,,,
cyc period,,,+,,,,,,,,,+,,,,,,,,,,,+,,,
mus run,,,,,,+,,,,,,,,,+,,,,,,,,,,,
cyc ov,,,+,,,,,,,,,+,,,,,,,,,,,+,,,
exerc way,+,,,,,,+,,,,,,+,,,,,,,,,,,,+,
grocery shop,,,,,,,,,,,,,,,,,,+,,,,,,,,
mood track,,,,,,,,,,,,+,,,,,+,,,,,,+,,,
brand food,+,,,,,,,,,,,,,,,,,+,,,,+,,,,
facebook post,,,,,,+,,,,,,,,,+,,,,,,+,,,,,
help night,,,,+,,,,+,,,,,,,,,,,,+,,,,,,
heart monit rat,,+,,,,+,,,,,,,,,+,,,,,,,,,,,
exerc tim,+,,,,,,+,,,,,,+,,,,,,,,,,,,+,
phon tim,,+,,+,,+,,,,,,,,,+,,,,,,,,,,,
sound vert,,,,+,,,,+,,,,,,,,,,,,+,,,,,,
night nois,,,,+,,,,+,,,,,,,,,,,,+,,,,,,
food info,+,,,,,,,,,,,,+,,,,,+,,,,+,,,,
food produc,+,,,,,,,,,,,,,,,,,+,,,,,,,,
act track,+,,,,,+,,,,,,,,,,,,,,,,+,,,,
feat tim,,,,+,,+,,+,,,,,,,+,,,,,,,,,,,
run walk,,,,,+,+,,,,,,,,,+,,,,,,,,,,,
pad pink,,,,,,,,,,,,,,,,,+,,,,,,,,,
info lot,,,,,,,,,,,,,,+,,+,,,,,,,,+,,
keep track,+,,+,,,,,,,,,+,,,,,,,,,,,+,,,
exerc workout,,,,,,,+,,,,,,,,,,,,,,,,,,+,
rout track,,+,,,+,+,,,,,,,,,+,,,,,,,,,,,
inform pregn,,,,,,,,,,,,,,+,,+,,,,,,,,,,
opt sound,,,,+,,,,+,,,,,,,,,,,,+,,,,,,
answ quest,,,,,,,,,,,,,,+,,,,,,,,,,+,,
map rid,,+,,,,,,,,,,,,,,,,,,,+,,,,,
cyc dat,,,+,,,,,,,,,+,,,,,,,,,,,+,,,
sens sho,,,,,,,,,,,,,,,+,,,,,,,,,,,
custom food,+,,,,,,,,,,,,,,,,,,,,,+,,,,
baby progress,,,,,,,,,,,,,,+,,+,,,,,,,,+,,
map rout,,+,,,,+,,,,,,,,,+,,,,,,,,,,,
bir control,,,+,,,,,,,,,+,,,,,+,,,,,,+,,,
everyth food,+,,,,,,,,,,,,,,,,,+,,,,+,,,,
cal workout,+,,,,,,+,,,,,,+,,+,,,,,,,,,,,
mil rout,,+,,,+,+,,,,,,,,,+,,,,,,,,,,,
act cal,+,,,,,+,,,,,,,,,,,,,,,,+,,,,
entry food,+,,,,,,,,,,,,+,,,,,,,,,+,,,,
girl nam,,,,,,,,,,+,+,,,,,,,,,,,,,,,
sleep tim,,,,+,,,,+,,,,,,,,,,,,+,,,,,,
pregn week,,,,,,,,,,,,,,+,,+,,,,,,,,,,
lov sound,,,,+,,,,+,,,,,,,,,,,,+,,,,,,
gps work,,+,,,,+,,,,,,,,,+,,,,,,,,,,,
help sleep,,,,+,,,,+,,,,,,,,,,,,+,,,,,,
rat star,,,,,,+,+,,,,,,,,+,,,,,,,,,,,
battery lif,,+,,,,+,,,,,,,,,+,,,,,,+,,,,,
cal phon,,+,,,,+,,,,,,,,,+,,,,,,,,,,,
background nois,,,,+,,,,+,,,,,,,,,,,,+,,,,,,
baby grow,,,,,,,,,,,,,,+,,+,,,,,,,,+,,
dat food,+,,,,,,,,,,,,+,,,,,,,,,+,,,,
track work,+,+,,,,,,,,,,,+,,+,,,,,,,,+,,+,
progress way,+,+,,,,,,,,,,,,,+,,,,,,+,,,,+,
opt tim,,,,,,+,,+,,,,,,,+,,,,,+,,,,,,
help lot,+,,,,,,,+,,,,+,,+,,,+,,,,,,+,,,
lov tim,,+,,,,,+,+,,,,,,+,+,,,,,,,,,,,
pac track,,,,,,+,,,,,,,,,+,,,,,,,,,,,
gps map,,+,,,,+,,,,,,,,,+,,,,,,,,,,,
tim way,,+,,,,+,+,,,,,,,,+,,,,,,+,,,,,
men wom,,,,,,,+,,,,,,,,,,,,,,,,,,,
nam search,,,,,,,,,,+,+,,,,,,,,,,,,,,,
cal dist,,,,,+,+,,,,,,,,,+,,,,,,,,,,,
map run,,,,,,+,,,,,,,,,+,,,,,,,,,,,
feedback voic,,+,,,+,,,,,,,,,,+,,,,,,,,,,,
night rain,,,,+,,,,+,,,,,,,,,,,,+,,,,,,
tim today,,+,,,+,+,,,,,,,,,+,,,,,,,,,,,
run way,,,,,,+,,,,,,,,,+,,,,,,,,,,,
baby day,,,,,,,,,,,,,,+,,+,,,,,,,,+,,
machin sound,,,,+,,,,+,,,,,,,,,,,,+,,,,,,
act food,+,,,,,,,,,,,,,,,,,,,,,+,,,,
calend period,,,+,,,,,,,,,+,,,,,,,,,,,+,,,
machin nois,,,,+,,,,+,,,,,,,,,,,,+,,,,,,
facebook twit,,+,,,,+,,,,,,,,,+,,,,,,,,,,,
day pregn,,,,,,,,,,,,,,+,,+,,,,,,,,,,
ent food,+,,,,,,,,,,,,+,,,,,,,,,+,,,,
cal goal,+,,,,,,,,,,,,,,,,,,,,,+,,,,
food lov,+,,,,,,,,,,,,,,,,,+,,,,+,,,,
acc gps,,,,,,+,,,,,,,,,+,,,,,,,,,,,
feat run,,,,,,+,,,,,,,,,+,,,,,,,,,,,
bas dat,+,,,,,,,,,,,,,,,,,+,,,,+,,,,
altern food,,,,,,,,,,,,,,,,,,+,,,,,,,,
loss track,+,,,,,,,,,,,,,,,,,,,,,,,,,
dat day,+,,+,,,,,,,,,,+,+,,,,,,,,,+,,,
help nam,,,,,,,,,,+,+,,,,,,,,,,,,,,,
nam select,,,,,,,,,,+,+,,,,,,,,,,,,,,,
gps mil,,,,,,+,,,,,,,,,+,,,,,,,,,,,
food inform,+,,,,,,,,,,,,,,,,,+,,,,,,,,
food select,+,,,,,,,,,,,,,,,,,+,,,,+,,,,
help period,,,+,,,,,,,,,,,,,,+,,,,,,+,,,
baby track,,,,,,,,,,,,,,+,,+,,,,,,,,+,,
cyc track way,,,+,,,,,,,,,+,,,,,+,,,,,,+,,,
night work,,,,+,,,,+,,,,,,,,,,,,+,,,,,,
cal loss,+,,,,,,,,,,,,,,,,,,,,,+,,,,
rout run,,,,,+,+,,,,,,,,,+,,,,,,,,,,,
baby info,,,,,,,,,,,,,,+,,+,,,,,,,,+,,
combin sound,,,,,,,,+,,,,,,,,,,,,,,,,,,
dat rid,,+,,,,,,,,,,,,,,,,,,,+,,,,,
day work,,,,+,,,+,+,,,,,,,,,,,,,,,,,,
lov pregn,,,,,,,,,,,,,,+,,+,,,,,,,,,,
goal track,+,,,,,,,,,,,,+,,,,,,,,,,,,,
lbs week,+,,,,,,,,,,,,,,,,,,,,,,,,,
period symptom,,,,,,,,,,,,+,,,,,+,,,,,,+,,,
dist tim track,,+,,,+,+,,,,,,,,,+,,,,,,,,,,,
day inform,,,,,,,,,,,,,,+,,+,,,,,,,,+,,
food tool,+,,,,,,,,,,,,,,,,,+,,,,,,,,
out work,,,,,,,+,,,,,,,,,,,,,,,,,,+,
day way,+,,,,,,,,+,,,,,,,,+,,,,,,+,,,
rid run,,+,,,+,+,,,,,,,,,,,,,,,+,,,,,
gps phon,,+,,,,+,,,,,,,,,+,,,,,,,,,,,
eat way,+,,,,,,,,,,,,,,,,,+,,,,,,,,
count food,+,,,,,,,,,,,,,,,,,,,,,+,,,,
fertil track,,,+,,,,,,,,,,,,,,+,,,,,,+,,,
mil today,,,,,,+,,,,,,,,,+,,,,,,,,,,,
gps iphon,,,,,,+,,,,,,,,,+,,,,,,,,,,,
anyon weight,+,,,,,,,,,,,,,,,,,,,,,,,,,
asleep night,,,,+,,,,+,,,,,,,,,,,,,,,,,,
fact food,+,,,,,,,,,,,,+,,,,,+,,,,,,,,
nam tim,,,,,,,,,,+,+,,,,,,,,,,,,,,,
day thing,+,,+,,,,,,+,,,,,+,,,,,,,,,+,,,
iphon run,,,,,,+,,,,,,,,,+,,,,,,,,,,,
map pac,,,,,,+,,,,,,,,,+,,,,,,,,,,,
baby tip,,,,,,,,,,,,,,+,,,,,,,,,,+,,
work workout,,+,,,,,+,,,,,,,,,,,,,,,,,,+,
cyc tim,,,+,,,,,,,,,+,,,,,,,,,,,+,,,
level workout,,,,,,,+,,,,,,,,,,,,,,,,,,+,
food nutrit,+,,,,,,,,,,,,+,,,,,+,,,,,,,,
gps problem,,,,,,+,,,,,,,,,+,,,,,,,,,,,
lov night,,,,+,,,,+,,,,,,,,,,,,+,,,,,,
minut pac,,,,,,+,,,,,,,,,+,,,,,,,,,,,
rid seg,,,,,,,,,,,,,,,,,,,,,+,,,,,
fertil period,,,+,,,,,,,,,,,,,,+,,,,,,+,,,
food stor,+,,,,,,,,,,,,,,,,,+,,,,,,,,
day eat,+,,,,,,,,,,,,+,,,,,,,,,,,,,
mon tim,,,,,,,,,,,,+,,,,,+,,,,,,+,,,
favorit nam,,,,,,,,,,+,+,,,,,,,,,,,,,,,
battery rid,,+,,,,,,,,,,,,,,,,,,,+,,,,,
help tim,,,,,,,,+,,,,,,+,,,,,,,,,+,+,,
track wat,+,,,,,,,,,,,,,,,,,,,,,,,,,
burn cal,+,,,,,,+,,,,,,+,,,,,,,,,+,,,,
exerc intak,+,,,,,,,,,,,,,,,,,,,,,,,,,
mus playl,,,,,,+,+,,,,,,,,+,,,,,,,,,,,
pow song,,,,,,,,,,,,,,,+,,,,,,,,,,,
book nam,,,,,,,,,,+,+,,,,,,,,,,,,,,,
bik comput,,+,,,,,,,,,,,,,,,,,,,+,,,,,
fun nam,,,,,,,,,,+,+,,,,,,,,,,,,,,,
cyc help,,,+,,,,,,,,,+,,,,,,,,,,,+,,,
exerc wat,+,,,,,,,,,,,,,,,,,,,,,,,,,
food meal,+,,,,,,,,,,,,,,,,,,,,,+,,,,
barcod food,+,,,,,,,,,,,,,,,,,,,,,,,,,
lov period,,,+,,,,,,,,,+,,,,,+,,,,,,+,,,
bas food,+,,,,,,,,,,,,+,,,,,,,,,+,,,,
cal mil,,+,,,,+,,,,,,,,,+,,,,,,,,,,,
day night,,,,+,,,,+,,,,,,,,,,,,,,,,,,
bar scan,+,,,,,,,,,,,,,,,,,,,,,,,,,
crash run,,,,,,,,,,,,,,,+,,,,,,,,,,,
dist map,,+,,,,+,,,,,,,,,+,,,,,,,,,,,
eat weight,+,,,,,,,,,,,,,,,,,,,,,,,,,
day not,,,+,,,,,,,,,+,,,,,,,,,,,+,,,
pregn way,,,,,,,,,,,,,,+,,+,,,,,,,,,,
idea nam,,,,,,,,,,+,+,,,,,,,,,,,,,,,
minut workout,,,,,,,+,,,,,,,,,,,,,,,,,,,
alarm tim,,,,+,,,,+,,,,,,,,,,,,,,,,,,
sound vary,,,,+,,,,+,,,,,,,,,,,,,,,,,,
food valu,+,,,,,,,,,,,,,,,,,+,,,,,,,,
baby lot,,,,,,,,,,+,+,,,+,,,,,,,,,,+,,
tool track,+,+,,,,,,,,,,,,,,,,,,,,,+,,,
minut run,,,,,,+,,,,,,,,,+,,,,,,,,,,,
cal pac,,,,,,+,,,,,,,,,+,,,,,,,,,,,
put sleep,,,,+,,,,+,,,,,,,,,,,,+,,,,,,
par tim,,,,,,,,,,,,,,+,,,,,,,,,,+,,
phon rid,,+,,,,,,,,,,,,,,,,,,,+,,,,,
lov week,+,,,,,,,,,,,,,+,,+,,,,,,,,,,
period thing,,,+,,,,,,,,,,,,,,+,,,,,,+,,,
eat exerc,+,,,,,,,,,,,,+,,,,,,,,,,,,,
run work,,,,,,+,,,,,,,,,+,,,,,,,,,,,
baby help,,,,,,,,,,+,+,,,+,,,,,,,,,,+,,
cod scan,+,,,,,,,,,,,,,,,,,,,,,,,,,
look nam,,,,,,,,,,+,+,,,,,,,,,,,,,,,
inform tim,,,,,,,,,,,,,,+,,,,,,,,,,+,,
baby tim,,,,,,,,,,,,,,+,,,,,,,,,,+,,
nam opt,,,,,,,,,,+,+,,,,,,,,,,,,,,,
calend track,,,+,,,,,,,,,,,,,,,,,,,,+,,,
fun track,,+,,,,,,,,,,+,,,,,,,,,,,,,+,
feat nam,,,,,,,,,,+,+,,,,,,,,,,,,,,,
men vert,,,,,,,+,,,,,,,,,,,,,,,,,,,
charact nam,,,,,,,,,,+,+,,,,,,,,,,,,,,,
log workout,,,,,+,,,,,,,,,,,,,,,,,,,,+,
baby way,,,,,,,,,,+,,,,+,,,,,,,,,,+,,
feat food,+,,,,,,,,,,,,,,,,,,,,,+,,,,
dat run,,,,,,+,,,,,,,,,+,,,,,,,,,,,
facebook run,,,,,,+,,,,,,,,,+,,,,,,,,,,,
video workout,,,,,,,+,,,,,,,,,,,,,,,,,,,
food resta,+,,,,,,,,,,,,,,,,,,,,,+,,,,
battery iphon,,+,,,,,,,,,,,,,+,,,,,,+,,,,,
food nee,+,,,,,,,,,,,,,,,,,+,,,,+,,,,
mot workout,,,,,,,+,,,,,,,,,,,,,,,,,,+,
mil rid,,+,,,,,,,,,,,,,,,,,,,+,,,,,
baby mom,,,,,,,,,,,,,,+,,,,,,,,,,+,,
lot opt,,,,,,,,+,,+,,,,,,,,,,,,+,,,,
boy nam,,,,,,,,,,+,+,,,,,,,,,,,,,,,
food label,+,,,,,,,,,,,,,,,,,+,,,,,,,,
spee track,,+,,,,+,,,,,,,,,+,,,,,,+,,,,,
nois tim,,,,+,,,,+,,,,,,,,,,,,,,,,,,
run thing,,,,,,+,,,,,,,,,+,,,,,,,,,,,
exerc video,,,,,,,+,,,,,,,,,,,,,,,,,,,
pac way,,,,,,+,,,,,,,,,+,,,,,,,,,,,
day mon,,,+,,,,,,+,,,+,,,,,,,,,,,+,,,
feat gps,,,,,,+,,,,,,,,,+,,,,,,,,,,,
record run,,,,,,+,,,,,,,,,+,,,,,,,,,,,
bar cod scan,+,,,,,,,,,,,,,,,,,,,,,,,,,
way work,,+,,,,,+,,,,,,,,+,,,,,,,,,,+,
gps watch,,,,,,+,,,,,,,,,+,,,,,,,,,,,
fun workout,,,,,,,+,,,,,,,,,,,,,,,,,,+,
cyc leng,,,+,,,,,,,,,,,,,,,,,,,,+,,,
cal run,,,,,,+,,,,,,,,,+,,,,,,,,,,,
mil ran,,,,,,+,,,,,,,,,+,,,,,,,,,,,
lock screen,,,,,,,,,,,,,,,+,,,,,,,,,,,
rid work,,+,,,,,,,,,,,,,,,,,,,+,,,,,
way weight,+,,,,,,,,,,,,,,,,,,,,,,,,,
job nik,,,,,,,+,,,,,,,,+,,,,,,,,,,,
inform week,,,,,,,,,,,,,,+,,+,,,,,,,,,,
cal count food,+,,,,,,,,,,,,,,,,,,,,,+,,,,
lov run,,,,,,+,,,,,,,,,+,,,,,,,,,,,
baby thing,,,,,,,,,,,,,,+,,,,,,,,,,+,,
info pregn,,,,,,,,,,,,,,+,,+,,,,,,,,,,
googl map,,+,,,,+,,,,,,,,,+,,,,,,,,,,,
intak wat,+,,,,,,,,,,,,,,,,,,,,,,,,,
not track,,,+,,,,,,,,,,,,,,,,,,,,+,,,
map tim,,+,,,,+,,,,,,,,,+,,,,,,,,,,,
day mil,,,,,,+,,,,,,,,,+,,,,,,,,,,,
help weight,+,,,,,,,,,,,,,,,,,,,,,,,,,
pac rout,,,,,,+,,,,,,,,,+,,,,,,,,,,,
mus voic,,,,,,+,+,,,,,,,,+,,,,,,,,,,,
food log,+,,,,,,,,,,,,,,,,,,,,,,,,,
food goal,+,,,,,,,,,,,,,,,,,,,,,+,,,,
bik road,,+,,,,,,,,,,,,,,,,,,,+,,,,,
abl sound,,,,+,,,,+,,,,,,,,,,,,,,,,,,
minut night,,,,+,,,,+,,,,,,,,,,,,+,,,,,,
mil way,,,,,,+,,,,,,,,,+,,,,,,,,,,,
charm work,,,,+,,,,+,,,,,,,,,,,,+,,,,,,
food input,+,,,,,,,,,,,,+,,,,,,,,,,,,,
train workout,,,,,,,+,,,,,,,,,,,,,,,,,,,
lot tim,,,,,,,,,,,,,,+,+,,,,,,,,,+,,
lov rain,,,,+,,,,+,,,,,,,,,,,,+,,,,,,
period start,,,+,,,,,,,,,+,,,,,,,,,,,+,,,
exerc food track,+,,,,,,,,,,,,,,,,,,,,,,,,,
audio cue,,,,,,+,,,,,,,,,,,,,,,,,,,,
cal thing,+,,,,,,+,,,,,,,,+,,,,,,,,,,,
map track,,+,,,,+,,,,,,,,,+,,,,,,,,,,,
loss tool,+,,,,,,,,,,,,,,,,,,,,,,,,,
day exerc,+,,,,,,,,,,,,+,,,,,,,,,,,,,
exerc thing,+,,,,,,+,,,,,,,,,,,,,,,,,,+,
paus workout,,,,,,,+,,,,,,,,+,,,,,,,,,,,
nik thank,,,,,,,+,,,,,,,,+,,,,,,,,,,,
day weight,+,,,,,,,,,,,,,,,,,,,,,+,,,,
inform tip,,,,,,,,,,,,,,+,,,,,,,,,,+,,
food loss,+,,,,,,,,,,,,,,,,,,,,,,,,,
hour tim,,,,+,,,,,,,,,,,,,,,,+,,,,,,
mil pac tim,,,,,,+,,,,,,,,,+,,,,,,,,,,,
vary workout,,,,,,,+,,,,,,,,,,,,,,,,,,,
cyc predict,,,+,,,,,,,,,,,,,,,,,,,,+,,,
track way workout,,+,,,,,,,,,,,,,,,,,,,,,,,+,
amount cal,+,,,,,,,,,,,,,,,,,,,,,+,,,,
day run,,,,,,,,,,,,,,,+,,,,,,,,,,,
mil spee,,+,,,,+,,,,,,,,,+,,,,,,,,,,,
dat ov,,,+,,,,,,,,,,,,,,,,,,,,+,,,
day meal,+,,,,,,,,,,,,,,,,,,,,,+,,,,
cyc not,,,+,,,,,,,,,+,,,,,,,,,,,+,,,
block nois,,,,+,,,,+,,,,,,,,,,,,,,,,,,
cal food track,+,,,,,,,,,,,,+,,,,,,,,,,,,,
cho lot,+,,,,,,,+,,+,,,,,,,,,,,,,,,,
half marathon,,,,,,+,,,,,,,,,+,,,,,,,,,,,
half mil,,,,,,+,,,,,,,,,+,,,,,,,,,,,
reward workout,,,,,,,+,,,,,,,,,,,,,,,,,,,
track walk,,,,,+,,,,,,,,,,+,,,,,,,,,,,
keep run,,,,,,+,,,,,,,,,+,,,,,,,,,,,
doct period,,,+,,,,,,,,,+,,,,,,,,,,,+,,,
nam pick,,,,,,,,,,+,+,,,,,,,,,,,,,,,
friend run,,,,,,+,,,,,,,,,+,,,,,,,,,,,
ap pregn,,,,,,,,,,,,,,+,,+,,,,,,,,,,
rid stat,,+,,,,,,,,,,,,,,,,,,,+,,,,,
body track,,,+,,,,,,,,,,,,,,,,,,,+,+,,,
day goal,+,,,,,,,,,,,,,,,,,,,,,+,,,,
cyc mon,,,+,,,,,,,,,+,,,,,,,,,,,+,,,
battery drain,,+,,,,,,,,,,,,,+,,,,,,+,,,,,
wom workout,,,,,,,+,,,,,,,,,,,,,,,,,,,
fal tim,,,,,,,,+,,,,,,,,,,,,+,,,,,,
gps rout,,,,,,+,,,,,,,,,+,,,,,,,,,,,
men workout,,,,,,,+,,,,,,,,,,,,,,,,,,,
relax sound,,,,,,,,+,,,,,,,,,,,,,,,,,,
fal minut,,,,+,,,,+,,,,,,,,,,,,+,,,,,,
day workout,,,,,,,+,,,,,,,,,,,,,,,,,,,
food ingredy,+,,,,,,,,,,,,,,,,,+,,,,,,,,
mon track,,,+,,,,,,,,,+,,,,,,,,,,,+,,,
tim voic,,+,,,,,,,,,,,,,+,,,,,,,,,,,
rid track way,,+,,,,,,,,,,,,,,,,,,,+,,,,,
baby body,,,,,,,,,,,,,,+,,+,,,,,,,,,,
food wat,+,,,,,,,,,,,,,,,,,,,,,,,,,
marathon train,,,,,,+,,,,,,,,,+,,,,,,,,,,,
goal reach,+,,,,,,,,,,,,,,,,,,,,,,,,,
nutrit track,+,,,,,,,,,,,,+,,,,,,,,,,,,,
food shop,,,,,,,,,,,,,,,,,,+,,,,,,,,
fun rid,,+,,,,,,,,,,,,,,,,,,,+,,,,,
cal help,+,,,,,,,,,,,,,,,,,,,,,,,,,
inform mom,,,,,,,,,,,,,,+,,,,,,,,,,+,,
ey op,+,,,,,,,,,,,,,,,,,+,,,,,,,,
gps sens,,,,,,,,,,,,,,,+,,,,,,,,,,,
fan nois,,,,+,,,,,,,,,,,,,,,,,,,,,,
relax sleep,,,,,,,,+,,,,,,,,,,,,,,,,,,
cal track way,+,,,,,,,,,,,,,,,,,,,,,,,,,
exerc opt,+,,,,,,+,,,,,,,,,,,,,,,+,,,,
problem tim,,,,,,+,,,,,,,,,+,,,,,,,,,,,
day period track,,,+,,,,,,,,,+,,,,,,,,,,,+,,,
calend day,,,+,,,,,,,,,,,,,,,,,,,,+,,,
pregn thing,,,,,,,,,,,,,,+,,+,,,,,,,,,,
battery gps,,+,,,,,,,,,,,,,+,,,,,,+,,,,,
