COMMON WORDS OF 363724891 WITH: 
-> 466847531

-> 389089619

-> 378928008

-> 368868193

-> 433849825

-> 436762566
crashes time, 
-> 509253726

-> 398436747

-> 301521403

-> 329504506

-> 292760731

-> 389724080

-> 300235330

-> 426826309

-> 353938652
baby name, baby names, name names, meanings names, list names, lots names, love names, names tons, lot names, names variety, favorites list, favorites names, meanings name, help name, names way, child name, name search, look names, meaning name, names time, names selection, fun names, love name, name way, list name, ideas name, baby name names, names search, baby girl, name pick, girl name, lot name, ideas names, favorites name, name options, 
-> 298903147

-> 292223170

-> 386022579

-> 387771637
crashes time, 
-> 410606661

-> 405280065

-> 287529757

-> 292987597

-> 314498713


COMMON WORDS OF 466847531 WITH: 
-> 389089619
mom time, baby pregnancy, baby information, baby development, moms time, baby info, baby love, baby day, baby track, information lots, info lots, information lot, day information, info time, baby fun, baby progress, 
-> 378928008

-> 368868193

-> 433849825

-> 436762566

-> 509253726

-> 398436747

-> 301521403

-> 329504506

-> 292760731

-> 389724080

-> 300235330

-> 426826309

-> 353938652
baby love, baby way, 
-> 298903147

-> 292223170

-> 386022579
mom time, baby center, baby pregnancy, birth club, baby information, baby development, answers questions, moms time, baby time, baby info, information time, baby tips, baby love, baby mom, baby day, center pregnancy, baby track, information lots, info lots, baby things, baby way, advice tips, information lot, information tips, day information, baby lot, baby fun, baby progress, day something, birth clubs, 
-> 387771637

-> 410606661

-> 405280065

-> 287529757

-> 292987597

-> 314498713


COMMON WORDS OF 389089619 WITH: 
-> 378928008
track way, track weight, 
-> 368868193
track way, 
-> 433849825
track way, 
-> 436762566
track way, track weight, 
-> 509253726
track way, 
-> 398436747

-> 301521403
day week, 
-> 329504506

-> 292760731
pregnancy track, track way, 
-> 389724080
track way, 
-> 300235330
track way, 
-> 426826309
track way, 
-> 353938652
baby love, 
-> 298903147
track way, 
-> 292223170
track way, 
-> 386022579
pregnancy track, baby week, pregnancy week, mom time, information week, baby development, baby love, track way, love week, information pregnancy, baby track, day week, love pregnancy, pregnancy way, baby progress, apps pregnancy, baby pregnancy, baby growth, baby size, info pregnancy, info lots, baby information, moms time, baby info, day pregnancy, day information, baby body, baby fun, baby day, info lot, lot pregnancy, information lots, information lot, 
-> 387771637
track way, 
-> 410606661

-> 405280065

-> 287529757
track way, love week, track weight, 
-> 292987597

-> 314498713


COMMON WORDS OF 378928008 WITH: 
-> 368868193
track way, everything track, everything need, 
-> 433849825
database food, calories track, food track, exercise food, eat track, track way, calories food, calories day, everything track, eat food, food items, food intake, food time, intake track, day food, calories eat, eat everything, database foods, enter food, choices food, barcode scanner, calorie counter, food search, food foods, calories weight, everything need, calories exercise, calories way, loss weight, food list, calorie track, data food, bar code, eat foods, food way, calorie tracker, food weight, 
-> 436762566
track way, everything track, track weight, everything need, help track, 
-> 509253726
track way, track workouts, exercise track, exercise way, fitness track, track work, 
-> 398436747
database food, eat food, food items, food time, database foods, choices food, food foods, food info, bar code, eat foods, food way, 
-> 301521403
track workouts, 
-> 329504506

-> 292760731
track way, everything track, everything need, help track, 
-> 389724080
track way, everything track, everything need, help track, 
-> 300235330
calories track, track way, track workouts, calories time, everything need, 
-> 426826309
track way, 
-> 353938652

-> 298903147
track way, track workouts, everything need, 
-> 292223170
track way, track workouts, calories time, everything need, 
-> 386022579
track way, everything need, 
-> 387771637
track way, calories time, everything need, track work, 
-> 410606661

-> 405280065
everything need, 
-> 287529757
food scanner, database food, calories track, food track, exercise food, eat track, track way, calories food, calories day, everything track, eat food, food items, food intake, food time, intake track, track weight, nutrition track, day food, calories eat, exercise track, eat everything, database foods, enter food, choices food, barcode scanner, calorie counter, food search, exercise weight, food foods, calories weight, exercise way, food nutrition, calories time, everything need, apps food, calories exercise, food tracker, calories way, food info, loss weight, food list, calorie track, help track, data food, food input, bar code, track work, eat foods, food way, calorie tracker, food weight, 
-> 292987597

-> 314498713


COMMON WORDS OF 368868193 WITH: 
-> 433849825
everything track, track way, everything need, 
-> 436762566
cycle track, everything track, symptoms track, cycles track, track way, period track, periods track, day period, days period, date period, cycle days, things track, cycle symptoms, month time, love track, cycle day, period symptoms, time track, ovulation track, moods track, everything need, cycle period, days track, cycle way, notes symptoms, ovulation period, cycle ovulation, keeps track, period start, birth control, moods symptoms, cycle everything, period time, date start, cycle month, month track, cycle track way, cycle love, cycle keeps, cycle time, 
-> 509253726
track way, fun track, 
-> 398436747

-> 301521403

-> 329504506

-> 292760731
cycle track, everything track, cycles track, track way, period track, periods track, day period, days period, date period, cycle days, things track, love track, cycle day, time track, ovulation track, everything need, cycle period, days track, cycle way, ovulation period, cycle ovulation, period start, birth control, period time, cycle month, month track, cycle track way, cycle love, cycle time, 
-> 389724080
cycle track, everything track, symptoms track, track way, period track, periods track, day period, days period, cycle days, things track, love track, everything need, days track, cycle way, birth control, moods symptoms, period time, cycle track way, 
-> 300235330
track way, time track, everything need, 
-> 426826309
track way, 
-> 353938652

-> 298903147
track way, time track, everything need, 
-> 292223170
track way, time track, everything need, fun track, 
-> 386022579
track way, everything need, 
-> 387771637
track way, time track, everything need, 
-> 410606661

-> 405280065
everything need, 
-> 287529757
everything track, track way, love track, time track, everything need, keeps track, 
-> 292987597

-> 314498713


COMMON WORDS OF 433849825 WITH: 
-> 436762566
everything need, track way, everything track, 
-> 509253726
track way, progress track, 
-> 398436747
database food, choices food, food options, food items, base data, bar code, food item, food foods, eat food, food time, eat foods, database foods, watchers weight, food way, food lot, 
-> 301521403

-> 329504506

-> 292760731
everything need, track way, everything track, 
-> 389724080
everything need, track way, everything track, 
-> 300235330
calories track, everything need, track way, activities track, progress track, 
-> 426826309
track way, progress track, 
-> 353938652

-> 298903147
everything need, track way, progress track, 
-> 292223170
everything need, track way, progress track, 
-> 386022579
everything need, track way, progress track, 
-> 387771637
everything need, track way, progress track, 
-> 410606661

-> 405280065
everything need, progress track, 
-> 287529757
calorie counter, database food, choices food, calories track, calories food, food options, calories day, food intake, activity food, food items, custom food, food track, food search, loss weight, food list, custom foods, base data, bar code, calories weight, exercise food, calorie food, everything need, food item, track way, food foods, barcode scanner, eat food, data food, food time, foods list, brands food, eat foods, day weight, database foods, watchers weight, food way, eat track, calories count, enter food, calorie count, intake track, day food, food option, food selection, calories exercise, amount calories, calories way, eat everything, calorie track, ability foods, calorie tracker, progress track, brand foods, base food, calories eat, food needs, goal weight, food weight, calories goals, everything track, food lot, 
-> 292987597

-> 314498713


COMMON WORDS OF 436762566 WITH: 
-> 509253726
track way, 
-> 398436747

-> 301521403

-> 329504506

-> 292760731
period track, track way, cycle track, everything track, periods track, days period, period way, day period, ovulation period, cycle way, days track, days ovulation, cycle day, help track, period time, ovulation track, cycle days, love track, date period, cycles track, cycle period, birth control, cycle ovulation, calendar track, things track, everything need, notes track, cycle track way, time track, cycle length, day ovulation, calendar period, day days, dates period, month track, month period, fertility track, cycle dates, ovulation periods, body track, period start, calendar cycle, calendar days, dates ovulation, family planning, cycle time, cycle love, cycle month, days notes, doctor period, days periods, 
-> 389724080
period track, track way, cycle track, everything track, periods track, moods symptoms, days period, period way, symptoms track, day period, cycle way, days track, period tracker, help track, period time, cycle days, love track, birth control, things track, everything need, cycle track way, help period, 
-> 300235330
track way, everything need, time track, 
-> 426826309
track way, 
-> 353938652

-> 298903147
track way, everything need, time track, 
-> 292223170
track way, everything need, time track, tool track, 
-> 386022579
track way, everything need, 
-> 387771637
track way, everything need, time track, crashes time, 
-> 410606661

-> 405280065
everything need, 
-> 287529757
track way, everything track, help track, love track, everything need, time track, keeps track, everything keeps, everything tracks, everything love, track weight, tool track, 
-> 292987597

-> 314498713


COMMON WORDS OF 509253726 WITH: 
-> 398436747

-> 301521403
track workouts, way workouts, fun workouts, outs work, way workout, way work, exercises workouts, apps fitness, 
-> 329504506

-> 292760731
track way, 
-> 389724080
track way, 
-> 300235330
track workouts, track way, progress track, 
-> 426826309
track way, progress track, progress way, friends way, 
-> 353938652

-> 298903147
track workouts, track way, progress track, 
-> 292223170
track workouts, track way, way workouts, progress track, fun track, progress way, progress track way, track workout, 
-> 386022579
track way, progress track, 
-> 387771637
track way, progress track, progress way, track work, way workout, way work, 
-> 410606661

-> 405280065
progress track, 
-> 287529757
track way, progress track, progress way, progress track way, track work, exercise way, exercise track, 
-> 292987597

-> 314498713


COMMON WORDS OF 398436747 WITH: 
-> 301521403

-> 329504506

-> 292760731

-> 389724080

-> 300235330

-> 426826309

-> 353938652

-> 298903147

-> 292223170

-> 386022579

-> 387771637

-> 410606661

-> 405280065

-> 287529757
choices food, choices helps, eat food, watchers weight, food items, eat foods, food way, food foods, eye opener, eat healthier, food help, food tool, food time, food lot, food information, food item, bar code, food info, eat way, choices foods, foods way, food love, foods information, food things, database food, database foods, database items, bar codes, base data, food see, foods time, food value, foods things, food options, 
-> 292987597

-> 314498713


COMMON WORDS OF 301521403 WITH: 
-> 329504506

-> 292760731

-> 389724080

-> 300235330
times week, time work, heart rate, music time, music voice, track workouts, 
-> 426826309
heart rate, 
-> 353938652

-> 298903147
time workout, heart rate, track workouts, 
-> 292223170
time work, way workouts, heart rate, track workouts, love time, 
-> 386022579
day week, love time, 
-> 387771637
time workout, nike thank, times week, music workout, job nike, music play, way workout, time work, get work, heart rate, music time, way work, music voice, ability music, love time, 
-> 410606661

-> 405280065

-> 287529757

-> 292987597

-> 314498713
home work, love time, 

COMMON WORDS OF 329504506 WITH: 
-> 292760731

-> 389724080

-> 300235330

-> 426826309

-> 353938652

-> 298903147

-> 292223170

-> 386022579
day time, check day, check everyday, 
-> 387771637

-> 410606661

-> 405280065

-> 287529757
day way, 
-> 292987597

-> 314498713
day time, 

COMMON WORDS OF 292760731 WITH: 
-> 389724080
cycle track, period track, everything track, track way, periods track, days track, day period, cycle days, days period, birth control, cycle way, help track, love track, cycle track way, things track, period way, period time, day track, everything need, 
-> 300235330
track way, time track, everything need, 
-> 426826309
track way, 
-> 353938652

-> 298903147
track way, time track, everything need, 
-> 292223170
track way, time track, everything need, 
-> 386022579
track way, pregnancy track, everything need, 
-> 387771637
track way, time track, everything need, 
-> 410606661

-> 405280065
everything need, 
-> 287529757
everything track, track way, help track, love track, time track, day track, everything need, 
-> 292987597

-> 314498713


COMMON WORDS OF 389724080 WITH: 
-> 300235330
track way, everything need, 
-> 426826309
track way, 
-> 353938652

-> 298903147
track way, everything need, 
-> 292223170
track way, everything need, 
-> 386022579
track way, everything need, 
-> 387771637
track way, everything need, 
-> 410606661

-> 405280065
everything need, 
-> 287529757
track way, everything track, love track, everything need, help track, day track, 
-> 292987597

-> 314498713


COMMON WORDS OF 300235330 WITH: 
-> 426826309
distance time, heart rate, progress track, track way, heart monitor, distance speed, facebook post, speed time, miles track, battery life, rides runs, 
-> 353938652

-> 298903147
distance time, distance pace, pace time, heart rate, distance pace time, progress track, track way, everything need, distance speed, mile pace, distance track, time today, time track, route time, speed time, distance route, mile time, track workouts, 
-> 292223170
distance time, distance pace, pace time, heart rate, progress track, gps time, track way, heart monitor, heart monitor rate, monitor rate, everything need, miles time, distance speed, distance track, time today, time track, gps work, facebook twitter, route time, time work, speed time, miles track, phone time, gps phone, calories time, battery life, distance route, track workouts, google maps, 
-> 386022579
progress track, track way, everything need, 
-> 387771637
distance time, distance pace, pace time, heart rate, distance pace time, progress track, gps time, run time, track way, heart monitor, miles minutes, pace run, miles minute, miles run, miles pace, calories distance, heart monitor rate, music pace, monitor rate, everything need, accuracy gps, gps problem, runs track, miles time, distance run, mile miles, music time, times week, distance speed, mile run, mile pace, pace track, distance track, calories pace, gps run, minutes pace, time today, time track, mile minute, gps work, facebook twitter, half marathon, facebook post, distance gps, gps watch, music run, gps iphone, pace way, gps way, miles today, gps miles, gps track, route time, minute pace, distance miles, minutes time, pace voice, time work, speed time, accurate gps, miles track, run track, map run, distance times, phone time, gps phone, calories time, run way, battery life, distance route, distance way, etc pace, gps update, mile time, runs time, gps version, mile minutes, mileage pace, run walk, distance mile, pace tells, problem time, distance runs, phone run, time walk, marathon training, minutes run, ipod music, music volume, gps location, data phone, rating star, garmin watch, map route, google maps, music voice, gps love, distance voice, fix please, pace route, ability track, fix problem, mile route, distance tracks, 
-> 410606661
minutes time, 
-> 405280065
progress track, everything need, 
-> 287529757
progress track, track way, everything need, time track, calories time, calories track, 
-> 292987597

-> 314498713
background music, 

COMMON WORDS OF 426826309 WITH: 
-> 353938652

-> 298903147
track way, progress track, heart rate, distance time, speed time, distance speed, 
-> 292223170
rides track, ride time, track way, rides way, progress track, heart rate, battery iphone, bike computer, distance time, battery life, data ride, speed time, rides track way, distance speed, phone ride, ride track, map ride, battery gps, ride speed, ride way, battery ride, ride rides, progress way, miles track, heart monitor, iphone ride, 
-> 386022579
track way, progress track, 
-> 387771637
track way, progress track, heart rate, distance time, battery life, speed time, distance speed, facebook post, battery gps, progress way, miles track, heart monitor, 
-> 410606661

-> 405280065
progress track, 
-> 287529757
track way, progress track, progress way, 
-> 292987597

-> 314498713


COMMON WORDS OF 353938652 WITH: 
-> 298903147

-> 292223170

-> 386022579
baby way, baby love, 
-> 387771637

-> 410606661

-> 405280065

-> 287529757

-> 292987597

-> 314498713
choices lots, lots options, 

COMMON WORDS OF 298903147 WITH: 
-> 292223170
distance time, track workouts, distance speed, track way, pace time, distance track, distance pace, progress track, heart rate, distance route, speed time, everything need, time track, route time, distance speed time, time today, routes track, feedback voice, 
-> 386022579
track way, progress track, everything need, 
-> 387771637
distance time, distance speed, track way, pace time, distance track, distance pace, progress track, heart rate, distance route, speed time, everything need, time track, route time, mile time, mile pace, distance pace time, time today, time workout, feedback voice, 
-> 410606661

-> 405280065
progress track, everything need, 
-> 287529757
track way, progress track, everything need, time track, 
-> 292987597

-> 314498713


COMMON WORDS OF 292223170 WITH: 
-> 386022579
track way, progress track, everything need, love time, 
-> 387771637
track way, distance time, distance speed, progress track, speed time, heart rate, everything need, battery life, friends share, time today, time track, route time, pace time, distance pace, distance track, heart monitor, progress way, phone pocket, distance route, heart monitor rate, monitor rate, google maps, battery gps, gps time, love time, battery phone, time tracks, battery drain, gps work, time work, gps phone, mileage time, miles time, miles track, feedback voice, time way, facebook twitter, route track, phone time, time voice, distance map, calories time, 
-> 410606661

-> 405280065
progress track, everything need, 
-> 287529757
track way, progress track, everything need, time track, progress way, progress track way, tool track, calories time, 
-> 292987597

-> 314498713
love time, 

COMMON WORDS OF 386022579 WITH: 
-> 387771637
everything need, track way, progress track, love time, lot time, 
-> 410606661

-> 405280065
everything need, progress track, 
-> 287529757
everything need, track way, progress track, love week, day times, 
-> 292987597

-> 314498713
love time, day time, 

COMMON WORDS OF 387771637 WITH: 
-> 410606661
minutes time, 
-> 405280065
progress track, everything need, 
-> 287529757
progress track, track way, time track, calories time, everything need, progress way, track work, 
-> 292987597

-> 314498713
love time, control volume, 

COMMON WORDS OF 410606661 WITH: 
-> 405280065

-> 287529757

-> 292987597
asleep fall, sounds version, night sleep, rain sound, baby sleep, rain thunder, fall night, sleep sounds, fall minutes, minutes night, love night, rain sounds, love rain, sleep time, charm works, night rain, background noise, night sounds, night time, help sleep, rain sleep, machine sound, sleep sound, machine noise, 
-> 314498713
asleep fall, sounds version, night sleep, rain sound, baby sleep, rain thunder, fall night, sleep sounds, fall minutes, minutes night, love night, rain sounds, fall sleep, sleep time, sounds timer, charm works, night rain, minutes timer, background noise, night timer, night sounds, night time, help sleep, night sound, rain sleep, love sleep, machine sound, fall sounds, machine noise, 

COMMON WORDS OF 405280065 WITH: 
-> 287529757
everything need, progress track, 
-> 292987597

-> 314498713


COMMON WORDS OF 287529757 WITH: 
-> 292987597

-> 314498713


COMMON WORDS OF 292987597 WITH: 
-> 314498713
night sleep, asleep fall, noise sleep, night noise, machine noise, noise sound, rain thunder, baby sleep, noise sounds, machine sound, fall night, background noise, rain sound, night rain, night time, mix sounds, sounds version, help night, alarm clock, help sleep, asleep night, charm works, rain sleep, sleep sounds, day night, rain sounds, baby night, baby noise, day work, night sounds, alarm timer, apps noise, puts sleep, sleep time, love night, help noise, fall way, night work, sound time, options sound, minutes night, night puts, fall minutes, noise work, block noise, 

COMMON WORDS OF 314498713 WITH: 

